%YAML 1.1
%TAG !u! tag:unity3d.com,2011:
--- !u!21 &2100000
Material:
  serializedVersion: 6
  m_ObjectHideFlags: 0
  m_CorrespondingSourceObject: {fileID: 0}
  m_PrefabInstance: {fileID: 0}
  m_PrefabAsset: {fileID: 0}
  m_Name: Nebula_Red_001
  m_Shader: {fileID: 4800000, guid: 741bb64dd04b67240aa82822576142b9, type: 3}
  m_ShaderKeywords: _ADD_PRECOMPUTED_VELOCITY _BLENDMODE_ADD _DOUBLESIDED_ON _SURFACE_TYPE_TRANSPARENT
  m_LightmapFlags: 4
  m_EnableInstancingVariants: 0
  m_DoubleSidedGI: 1
  m_CustomRenderQueue: 2750
  stringTagMap:
    MotionVector: User
    RenderType: Transparent
  disabledShaderPasses:
  - DistortionVectors
  - MOTIONVECTORS
  - TransparentBackface
  m_SavedProperties:
    serializedVersion: 3
    m_TexEnvs:
    - _CoronaNoise:
        m_Texture: {fileID: 2800000, guid: 50f09f657475dde4a8e6318909bc5604, type: 3}
        m_Scale: {x: 1, y: 1}
        m_Offset: {x: 0, y: 0}
    - _MainTex:
        m_Texture: {fileID: 2800000, guid: a903273da18a84a42b1b2f9293b83ec1, type: 3}
        m_Scale: {x: 1, y: 1}
        m_Offset: {x: 0, y: 0}
    - _Mask:
        m_Texture: {fileID: 2800000, guid: e2f88074379c8544aa1eaf0346ed990d, type: 3}
        m_Scale: {x: 1, y: 1}
        m_Offset: {x: 0, y: 0}
    - _Nebula:
        m_Texture: {fileID: 2800000, guid: 87a93aa207c5201489876e9c4292685b, type: 3}
        m_Scale: {x: 1, y: 1}
        m_Offset: {x: 0, y: 0}
    - _texcoord:
        m_Texture: {fileID: 0}
        m_Scale: {x: 1, y: 1}
        m_Offset: {x: 0, y: 0}
    m_Floats:
    - _AddPrecomputedVelocity: 1
    - _Alpha: 0.363
    - _AlphaCutoff: 0.5
    - _AlphaCutoffEnable: 0
    - _AlphaDstBlend: 1
    - _AlphaSrcBlend: 1
    - _BlendMode: 1
    - _Boost: 1
    - _CoronaAmp: 41.1
    - _CoronaBoost: 1
    - _CoronaExp: 0.52
    - _CoronaFalloff: 1
    - _CoronaFluidInfluence: 16.26
    - _CoronaFluidTile: 16.89
    - _CoronaSpeed: 13.08
    - _CoronaTileX: 12.35
    - _CoronaTileY: 1
    - _CullMode: 0
    - _CullModeForward: 0
    - _DischargePanSpeed: 4.99
    - _DischargeTileX: 5.62
    - _DischargeTileY: 4.98
    - _DistortionEnable: 0
    - _DistortionOnly: 0
    - _DoubleSidedEnable: 1
    - _DoubleSidedNormalMode: 2
    - _DstBlend: 1
    - _EdgeMaskFalloff: 4.85
    - _EdgeMaskPower: 1.65
    - _EnableFogOnTransparent: 0
    - _FadeEnd: 50
    - _FadeStart: 40
    - _InvFade: 1
    - _Max: 1
    - _MaxFadeEnd: 155
    - _MaxFadeStart: 80
    - _Min: 0.1
    - _MinFadeEnd: 10
    - _MinFadeStart: 3
    - _ReceivesSSR: 0
    - _RenderQueueType: 4
    - _RequireSplitLighting: 0
    - _SolarStormFalloff: 6.01
    - _SolarStormPower: 1
    - _SrcBlend: 1
    - _StencilRef: 0
    - _StencilRefDepth: 0
    - _StencilRefDistortionVec: 4
    - _StencilRefGBuffer: 2
    - _StencilRefMV: 32
    - _StencilWriteMask: 6
    - _StencilWriteMaskDepth: 8
    - _StencilWriteMaskDistortionVec: 4
    - _StencilWriteMaskGBuffer: 14
    - _StencilWriteMaskMV: 40
    - _SurfaceType: 1
    - _TransparentBackfaceEnable: 0
    - _TransparentCullMode: 2
    - _TransparentSortPriority: 0
    - _TransparentZWrite: 0
    - _UseShadowThreshold: 0
    - _ZTestDepthEqualForOpaque: 0
    - _ZTestGBuffer: 4
    - _ZTestTransparent: 0
    - _ZWrite: 0
    - __dirty: 1
    m_Colors:
    - _Color: {r: 1, g: 1, b: 1, a: 1}
    - _Color0: {r: 1, g: 1, b: 1, a: 1}
    - _ColorFrom: {r: 1, g: 0, b: 0, a: 1}
    - _ColorMaskFrom: {r: 1, g: 0.5633874, b: 0.09558821, a: 0.5019608}
    - _ColorMaskTo: {r: 0.99999994, g: 0, b: 0, a: 0.5019608}
    - _ColorTo: {r: 1, g: 0.58823526, b: 0.58823526, a: 1}
    - _CoronaColor: {r: 1, g: 1, b: 1, a: 1}
    - _DoubleSidedConstants: {r: 1, g: 1, b: -1, a: 0}
    - _EmissionColor: {r: 1, g: 1, b: 1, a: 1}
    - _Fade: {r: 0.17, g: 0.55, b: 3.85, a: 6.72}
