{
    "name": "Konrad.Kolpak.Projects.MyBouncyBallExample.Editor",
    "rootNamespace": "Konrad.Kolpak.Projects.MyBouncyBallExample",
    "references": [
        "GUID:72878927ed773a04495867139937d0cd"
    ],
    "includePlatforms": [],
    "excludePlatforms": [],
    "allowUnsafeCode": false,
    "overrideReferences": false,
    "precompiledReferences": [],
    "autoReferenced": true,
    "defineConstraints": [],
    "versionDefines": [],
    "noEngineReferences": false
}