%YAML 1.1
%TAG !u! tag:unity3d.com,2011:
--- !u!21 &2100000
Material:
  serializedVersion: 6
  m_ObjectHideFlags: 0
  m_CorrespondingSourceObject: {fileID: 0}
  m_PrefabInstance: {fileID: 0}
  m_PrefabAsset: {fileID: 0}
  m_Name: vulcan_shell
  m_Shader: {fileID: 4800000, guid: 5923a67575b15f94589517d47e1a263e, type: 3}
  m_ShaderKeywords: _DOUBLESIDED_ON _ENABLE_FOG_ON_TRANSPARENT _SURFACE_TYPE_TRANSPARENT
  m_LightmapFlags: 4
  m_EnableInstancingVariants: 0
  m_DoubleSidedGI: 1
  m_CustomRenderQueue: 3000
  stringTagMap:
    MotionVector: User
    RenderType: Transparent
  disabledShaderPasses:
  - DistortionVectors
  - MOTIONVECTORS
  - TransparentBackface
  m_SavedProperties:
    serializedVersion: 3
    m_TexEnvs:
    - _MainTex:
        m_Texture: {fileID: 2800000, guid: 1f184208480870a4d8bb263c04b771d0, type: 3}
        m_Scale: {x: 1, y: 1}
        m_Offset: {x: 0, y: 0}
    - _texcoord:
        m_Texture: {fileID: 0}
        m_Scale: {x: 1, y: 1}
        m_Offset: {x: 0, y: 0}
    m_Floats:
    - _AlphaCutoff: 0.5
    - _AlphaCutoffEnable: 0
    - _AlphaDstBlend: 10
    - _AlphaSrcBlend: 1
    - _BlendMode: 0
    - _CullMode: 0
    - _CullModeForward: 0
    - _DistortionEnable: 0
    - _DistortionOnly: 0
    - _DoubleSidedEnable: 1
    - _DoubleSidedNormalMode: 2
    - _DstBlend: 10
    - _EnableFogOnTransparent: 1
    - _InvFade: 3
    - _ReceivesSSR: 0
    - _RenderQueueType: 4
    - _RequireSplitLighting: 0
    - _SrcBlend: 1
    - _StencilRef: 0
    - _StencilRefDepth: 0
    - _StencilRefDistortionVec: 4
    - _StencilRefGBuffer: 2
    - _StencilRefMV: 32
    - _StencilWriteMask: 6
    - _StencilWriteMaskDepth: 8
    - _StencilWriteMaskDistortionVec: 4
    - _StencilWriteMaskGBuffer: 14
    - _StencilWriteMaskMV: 40
    - _SurfaceType: 1
    - _TransparentBackfaceEnable: 0
    - _TransparentCullMode: 2
    - _TransparentSortPriority: 0
    - _TransparentZWrite: 0
    - _UseShadowThreshold: 0
    - _ZTestDepthEqualForOpaque: 4
    - _ZTestGBuffer: 4
    - _ZTestTransparent: 4
    - _ZWrite: 0
    m_Colors:
    - _Color: {r: 1, g: 1, b: 1, a: 1}
    - _DoubleSidedConstants: {r: 1, g: 1, b: -1, a: 0}
    - _EmissionColor: {r: 1, g: 1, b: 1, a: 1}
    - _Tint: {r: 1, g: 1, b: 1, a: 1}
    - _TintColor: {r: 1, g: 1, b: 1, a: 1}
  m_BuildTextureStacks: []
