%YAML 1.1
%TAG !u! tag:unity3d.com,2011:
--- !u!21 &2100000
Material:
  serializedVersion: 6
  m_ObjectHideFlags: 0
  m_CorrespondingSourceObject: {fileID: 0}
  m_PrefabInstance: {fileID: 0}
  m_PrefabAsset: {fileID: 0}
  m_Name: Holographic_Red
  m_Shader: {fileID: 4800000, guid: 346a1905b11196d4a9a5a567f7a9dc2a, type: 3}
  m_ShaderKeywords: _ADD_PRECOMPUTED_VELOCITY _BLENDMODE_ADD _DOUBLESIDED_ON _ENABLE_FOG_ON_TRANSPARENT
    _SURFACE_TYPE_TRANSPARENT
  m_LightmapFlags: 4
  m_EnableInstancingVariants: 1
  m_DoubleSidedGI: 1
  m_CustomRenderQueue: 3000
  stringTagMap:
    MotionVector: User
    RenderType: Transparent
  disabledShaderPasses:
  - DistortionVectors
  - TransparentBackface
  m_SavedProperties:
    serializedVersion: 3
    m_TexEnvs:
    - _MainTex:
        m_Texture: {fileID: 2800000, guid: 2331a5a0008d09b428d80d3f554b6ef6, type: 3}
        m_Scale: {x: 1, y: 1}
        m_Offset: {x: 0, y: 0}
    - _ShadowTex:
        m_Texture: {fileID: 2800000, guid: 6c6639f2e1ff8584b9bc4609ed0ee50f, type: 3}
        m_Scale: {x: 5, y: 5}
        m_Offset: {x: 0, y: 0}
    m_Floats:
    - _AddPrecomputedVelocity: 1
    - _AlphaCutoff: 0.5
    - _AlphaCutoffEnable: 0
    - _AlphaDstBlend: 1
    - _AlphaSrcBlend: 1
    - _BlendMode: 1
    - _CullMode: 0
    - _CullModeForward: 0
    - _DistortionEnable: 0
    - _DistortionOnly: 0
    - _DoubleSidedEnable: 1
    - _DoubleSidedNormalMode: 2
    - _DstBlend: 1
    - _EmissiveBoost: 211
    - _EnableFogOnTransparent: 1
    - _Fade: 0.906
    - _Flicker: 0.29
    - _FresMult: 1
    - _FresMultOut: 5.1
    - _FresPow: 7.24
    - _FresPowOut: 5.46
    - _InvFade: 1.75
    - _ReceivesSSR: 0
    - _RenderQueueType: 4
    - _RequireSplitLighting: 0
    - _SrcBlend: 1
    - _StencilRef: 0
    - _StencilRefDepth: 0
    - _StencilRefDistortionVec: 4
    - _StencilRefGBuffer: 2
    - _StencilRefMV: 32
    - _StencilWriteMask: 6
    - _StencilWriteMaskDepth: 8
    - _StencilWriteMaskDistortionVec: 4
    - _StencilWriteMaskGBuffer: 14
    - _StencilWriteMaskMV: 40
    - _SurfaceType: 1
    - _TransparentBackfaceEnable: 0
    - _TransparentCullMode: 2
    - _TransparentSortPriority: 0
    - _TransparentZWrite: 0
    - _UseShadowThreshold: 0
    - _ZTestDepthEqualForOpaque: 4
    - _ZTestGBuffer: 4
    - _ZTestTransparent: 4
    - _ZWrite: 0
    - __dirty: 0
    m_Colors:
    - _Color: {r: 1, g: 1, b: 1, a: 1}
    - _DoubleSidedConstants: {r: 1, g: 1, b: -1, a: 0}
    - _EmissionColor: {r: 1, g: 1, b: 1, a: 1}
    - _Inter: {r: 6.65, g: 200, b: 4, a: 55}
    - _InterScale: {r: 0.1, g: 200, b: 100, a: 0}
    - _TintColor: {r: 0.2352941, g: 0.7784991, b: 1, a: 1}
    - _bLayerColorA: {r: 0.34558818, g: 0.19838005, b: 0.040657416, a: 0.5019608}
    - _bLayerColorB: {r: 1, g: 0.587627, b: 0.21323532, a: 0.5019608}
    - _bLayerColorC: {r: 0.61764705, g: 0.41769466, b: 0.23615909, a: 0.5019608}
  m_BuildTextureStacks: []
