%YAML 1.1
%TAG !u! tag:unity3d.com,2011:
--- !u!114 &11400000
MonoBehaviour:
  m_ObjectHideFlags: 0
  m_CorrespondingSourceObject: {fileID: 0}
  m_PrefabInstance: {fileID: 0}
  m_PrefabAsset: {fileID: 0}
  m_GameObject: {fileID: 0}
  m_Enabled: 1
  m_EditorHideFlags: 0
  m_Script: {fileID: 11500000, guid: 4cbe779e86474520a46ca9c4d1b709d9, type: 3}
  m_Name: Fire
  m_EditorClassIdentifier: 
  _allowedStates:
  - {fileID: 11400000, guid: 5dc392dbda63e0472b083f9316ba4f3a, type: 2}
